2 Data Processing – NZILBB R, Stats, and Open Science Workshops
…
# A tibble: 3 × 14
  speaker     vowel F1_50 F2_50 participant_age_category participant_gender
  <chr>       <chr> <int> <int> <chr>                    <chr>             
1 QB_NZ_F_281 GOOSE   427  2050 46-55                    F                 
2 QB_NZ_F_281 DRESS   440  2320 46-55                    F                 
3 QB_NZ_F_281 NURSE   434  1795 46-55                    F                 
# ℹ 8 more variables: participant_nz_ethnic <chr>, word_freq <int>, word <chr>,
#   time <dbl>, vowel_duration <dbl>, articulation_rate <dbl>,
#   following_segment_category <chr>, amplitude <dbl>

# columns only:
vowels[, 1:3]

# A tibble: 26,331 × 3
   speaker     vowel F1_50
   <chr>       <chr> <int>
 1 QB_NZ_F_281 GOOSE   427
 2 QB_NZ_F_281 DRESS   440
 3 QB_NZ_F_281 NURSE   434
 4 QB_NZ_F_281 KIT     554
 5 QB_NZ_F_281 LOT     530
 6 QB_NZ_F_281 START   851
 7 QB_NZ_F_281 DRESS   415
 8 QB_NZ_F_281 STRUT   805
 9 QB_NZ_F_281 START   857
10 QB_NZ_F_281 TRAP    624
# ℹ 26,321 more rows
…
