7 Generalized Additive (Mixed) Models – NZILBB R and Open Science Workshops
…
In the case we are looking at now, reducing the smoothing parameter is equivalent to decreasing bias and increasing variance.

See the Wikipedia page.

7.2.3 Fitting GAMs with mgcv

How do we specify GAMs with the mgcv package? Let’s start with model formulae.

The most obvious this is the construction of smooth terms. These use the s function. Let’s look at the ONZE data from Figure 7.5 and Figure 7.6. Here we want normalised first formant values to vary with year of birth in a non-linear way. We want a smooth on year of birth.

What are the column names here?

mean_onze_full

# A tibble: 481 × 5
   speaker  F1_lob2   yob speech_rate gender
   <fct>      <dbl> <int>       <dbl> <fct> 
 1 CC_f_007  -0.765  1982        5.76 F     
 2 CC_f_010  -0.554  1947        5.06 F     
 3 CC_f_020  -0.242  1936        5.04 F     
 4 CC_f_024  -0.760  1973        5.61 F     
 5 CC_f_025  -0.747  1949        4.63 F     
 6 CC_f_027  -0.962  1981        5.22 F     
 7 CC_f_033  -0.725  1953        4.82 F     
 8 CC_f_040  -0.731  1955        4.24 F     
 9 CC_f_051  -0.769  1955        4.67 F     
10 CC_f_052  -0.838  1942        5.61 F     
# ℹ 471 more rows
…
